…
``` r
install.packages("devtools")
devtools::install_github("JiyueQin/eas")
```

## Usage

``` r
library(eas)
library(tidyverse)
# here is a sample hypothetical dataset used to calculate z-scores. You should prepare your dataset in this standard format.
head(sample_dat)
```

    ## # A tibble: 6 x 21
    ##   female   age educyrs black_race mocascore verbatimi paraphrasei verbatimd
    ##    <dbl> <dbl>   <dbl>      <dbl>     <dbl>     <dbl>       <dbl>     <dbl>
    ## 1      1  74.4      19          0        18        21          17        26
    ## 2      0  82.2      18          0        17        12          19        29
    ## 3      1  84.2      16          0        25        21          22        16
    ## 4      1  84.3      14          1        26        28          20        12
    ## 5      0  76.5      20          0        17        16          23         9
    ##   paraphrased bensonscorei bensonscored numspancorf numspancorb minttotal
    ##         <dbl>        <dbl>        <dbl>       <dbl>       <dbl>     <dbl>
    ## 1          15           15           11          10           8        29
    ## 2          10           16           10           4           5        28
    ## 3          15           13            9           9           6        27
    ## 4          14           16           11           9           7        28
    ## 5          15           13           10          13           8        28
    ##   fwords60sec lwords60sec flword animals60sec vegetables60sec tr_a1 tr_b1
    ##         <dbl>       <dbl>  <dbl>        <dbl>           <dbl> <dbl> <dbl>
    ## 1          12          18     29           28               7    39   105
    ## 2          14          11     42           19              14    58    69
    ## 3          12           9     30           10              20    37    51
    ## 4           9          19     11           16              13    43    77
    ## 5          15           7     29           22               4    33   139
    ## # ... with 1 more row
…
``` r
# only include three test variables for easier display
sample_dat_small = sample_dat %>% select(female:black_race, minttotal, tr_a1, tr_b1)

# calculate z-scores and the impairment indicators for tr_a1 and tr_b1 with NACC norms and 1.5 SD to define impairment.
uds_z(sample_dat_small, c('tr_a1','tr_b1'), norms = 'nacc', impair_sd = 1.5)
```

    ## # A tibble: 20 x 11
    ##   female   age educyrs black_race minttotal tr_a1 tr_b1 z_tr_a1
    ##    <dbl> <dbl>   <dbl>      <dbl>     <dbl> <dbl> <dbl>   <dbl>
    ## 1      1  74.4      19          0        29    39   105 -0.796 
    ## 2      0  82.2      18          0        28    58    69 -1.75  
    ## 3      1  84.2      16          0        27    37    51 -0.0257
    ## 4      1  84.3      14          1        28    43    77  0.431 
    ## 5      0  76.5      20          0        28    33   139 -0.212 
    ##   impair_1.5sd_tr_a1 z_tr_b1 impair_1.5sd_tr_b1
    ##                <dbl>   <dbl>              <dbl>
    ## 1                  0  -0.786                  0
    ## 2                  1   0.511                  0
    ## 3                  0   1.09                   0
    ## 4                  0   1.61                   0
    ## 5                  0  -1.45                   0
    ## # ... with 15 more rows

``` r
# calculate the z-score and the impaiment indicator for minttotal with EAS norms and 1SD to define impairment
# Also output mean and sd estimates in addition to the z-scores and the impairment indicators.
uds_z(sample_dat_small, 'minttotal', norms = 'eas', impair_sd = 1, out_mean_sd  = T)
```

    ## # A tibble: 20 x 11
    ##   female   age educyrs black_race minttotal tr_a1 tr_b1 sd_minttotal
    ##    <dbl> <dbl>   <dbl>      <dbl>     <dbl> <dbl> <dbl>        <dbl>
    ## 1      1  74.4      19          0        29    39   105         3.90
    ## 2      0  82.2      18          0        28    58    69         3.90
    ## 3      1  84.2      16          0        27    37    51         3.90
    ## 4      1  84.3      14          1        28    43    77         3.90
    ## 5      0  76.5      20          0        28    33   139         3.90
    ##   mean_minttotal z_minttotal impair_1sd_minttotal
    ##            <dbl>       <dbl>                <dbl>
    ## 1           29.7     -0.172                     0
    ## 2           28.2     -0.0473                    0
    ## 3           27.8     -0.199                     0
    ## 4           26.0      0.524                     0
    ## 5           29.4     -0.350                     0
    ## # ... with 15 more rows
